Genomic analysis: Pt I
…
HuR PAR-CLIP data: annotation

# annotation categories that HuR binds to
binding_regions_all <- hur_parclip %>% 
  count(Aligned.to) %>%
  arrange(desc(n)) %>%
  mutate(freq=n/sum(n))

binding_regions_all

# A tibble: 39 x 3
   Aligned.to                  n    freq
   <chr>                   <int>   <dbl>
 1 intron                  60846 0.547  
 2 utr3                    20490 0.184  
 3 NoAnnotation            18694 0.168  
 4 processed_transcript     2621 0.0236 
 5 repeat                   2277 0.0205 
 6 lincRNA_intron           1813 0.0163 
 7 antisense                1220 0.0110 
 8 coding                    825 0.00742
 9 lincRNA_exon              495 0.00445
10 nonsense_mediated_decay   431 0.00387
#  with 29 more rows
…
